server1 | SUCCESS => {
    "ansible_facts": {
        "ansible_all_ipv4_addresses": [
            "192.168.56.10", 
            "10.0.2.15"
        ], 
        "ansible_all_ipv6_addresses": [
            "fe80::a00:27ff:fe6f:1f17", 
            "fe80::a00:27ff:fec4:a465"
        ], 
        "ansible_apparmor": {
            "status": "enabled"
        }, 
        "ansible_architecture": "x86_64", 
        "ansible_bios_date": "12/01/2006", 
        "ansible_bios_version": "VirtualBox", 
        "ansible_cmdline": {
            "BOOT_IMAGE": "/boot/vmlinuz-4.4.87-25-default", 
            "quiet": true, 
            "resume": "/dev/sda2", 
            "root": "UUID=3090591d-90bd-4a5f-8cc5-61e8bdd6f40a", 
            "showopts": true, 
            "splash": "silent"
        }, 
        "ansible_date_time": {
            "date": "2017-09-28", 
            "day": "28", 
            "epoch": "1506614116", 
            "hour": "10", 
            "iso8601": "2017-09-28T15:55:16Z", 
            "iso8601_basic": "20170928T105516527999", 
            "iso8601_basic_short": "20170928T105516", 
            "iso8601_micro": "2017-09-28T15:55:16.528090Z", 
            "minute": "55", 
            "month": "09", 
            "second": "16", 
            "time": "10:55:16", 
            "tz": "CDT", 
            "tz_offset": "-0500", 
            "weekday": "Thursday", 
            "weekday_number": "4", 
            "weeknumber": "39", 
            "year": "2017"
        }, 
        "ansible_default_ipv4": {
            "address": "10.0.2.15", 
            "alias": "eth0", 
            "broadcast": "10.0.2.255", 
            "gateway": "10.0.2.2", 
            "interface": "eth0", 
            "macaddress": "08:00:27:c4:a4:65", 
            "mtu": 1500, 
            "netmask": "255.255.255.0", 
            "network": "10.0.2.0", 
            "type": "ether"
        }, 
        "ansible_default_ipv6": {}, 
        "ansible_devices": {
            "sda": {
                "holders": [], 
                "host": "SATA controller: Intel Corporation 82801HM/HEM (ICH8M/ICH8M-E) SATA Controller [AHCI mode] (rev 02)", 
                "model": "VBOX HARDDISK", 
                "partitions": {
                    "sda1": {
                        "holders": [], 
                        "sectors": "39839744", 
                        "sectorsize": 512, 
                        "size": "19.00 GB", 
                        "start": "2048", 
                        "uuid": "3090591d-90bd-4a5f-8cc5-61e8bdd6f40a"
                    }, 
                    "sda2": {
                        "holders": [], 
                        "sectors": "2101248", 
                        "sectorsize": 512, 
                        "size": "1.00 GB", 
                        "start": "39841792", 
                        "uuid": "821b2857-0aee-4fa7-bf58-72c1ff46b6eb"
                    }
                }, 
                "removable": "0", 
                "rotational": "1", 
                "sas_address": null, 
                "sas_device_handle": null, 
                "scheduler_mode": "cfq", 
                "sectors": "41943040", 
                "sectorsize": "512", 
                "size": "20.00 GB", 
                "support_discard": "0", 
                "vendor": "ATA"
            }, 
            "sr0": {
                "holders": [], 
                "host": "SATA controller: Intel Corporation 82801HM/HEM (ICH8M/ICH8M-E) SATA Controller [AHCI mode] (rev 02)", 
                "model": "CD-ROM", 
                "partitions": {}, 
                "removable": "1", 
                "rotational": "1", 
                "sas_address": null, 
                "sas_device_handle": null, 
                "scheduler_mode": "cfq", 
                "sectors": "2097151", 
                "sectorsize": "512", 
                "size": "1024.00 MB", 
                "support_discard": "0", 
                "vendor": "VBOX"
            }
        }, 
        "ansible_distribution": "openSUSE Leap", 
        "ansible_distribution_major_version": "42", 
        "ansible_distribution_release": "3", 
        "ansible_distribution_version": "42.3", 
        "ansible_dns": {
            "nameservers": [
                "172.28.155.26", 
                "172.28.155.10", 
                "172.28.155.250"
            ]
        }, 
        "ansible_domain": "", 
        "ansible_effective_group_id": 0, 
        "ansible_effective_user_id": 0, 
        "ansible_env": {
            "COLORTERM": "1", 
            "CPU": "x86_64", 
            "CSHEDIT": "emacs", 
            "FROM_HEADER": "", 
            "GPG_TTY": "/dev/pts/0", 
            "G_BROKEN_FILENAMES": "1", 
            "G_FILENAME_ENCODING": "@locale,UTF-8,ISO-8859-15,CP1252", 
            "HISTSIZE": "1000", 
            "HOME": "/root", 
            "HOST": "linux-6bd2", 
            "HOSTNAME": "linux-6bd2", 
            "HOSTTYPE": "x86_64", 
            "INPUTRC": "/etc/inputrc", 
            "LANG": "en_US.UTF-8", 
            "LESS": "-M -I -R", 
            "LESSCLOSE": "lessclose.sh %s %s", 
            "LESSKEY": "/etc/lesskey.bin", 
            "LESSOPEN": "lessopen.sh %s", 
            "LESS_ADVANCED_PREPROCESSOR": "no", 
            "LIBGL_DEBUG": "quiet", 
            "LOGNAME": "root", 
            "MACHTYPE": "x86_64-suse-linux", 
            "MAIL": "/var/mail/root", 
            "MANPATH": "", 
            "MINICOM": "-c on", 
            "MORE": "-sl", 
            "NNTPSERVER": "news", 
            "OSTYPE": "linux", 
            "PAGER": "less", 
            "PATH": "/sbin:/usr/sbin:/usr/local/sbin:/root/bin:/usr/local/bin:/usr/bin:/bin:/usr/games", 
            "PROFILEREAD": "true", 
            "PWD": "/root", 
            "PYTHONPATH": "/tmp/ansible_9GhCbH/ansible_modlib.zip", 
            "PYTHONSTARTUP": "/etc/pythonstart", 
            "SHELL": "/bin/bash", 
            "SHLVL": "2", 
            "SSH_CLIENT": "192.168.56.1 34692 22", 
            "SSH_CONNECTION": "192.168.56.1 34692 192.168.56.10 22", 
            "SSH_SENDS_LOCALE": "yes", 
            "SSH_TTY": "/dev/pts/0", 
            "TERM": "linux", 
            "USER": "root", 
            "XDG_CONFIG_DIRS": "/etc/xdg", 
            "XDG_DATA_DIRS": "/usr/share", 
            "XDG_RUNTIME_DIR": "/run/user/0", 
            "XDG_SESSION_ID": "9", 
            "XKEYSYMDB": "/usr/X11R6/lib/X11/XKeysymDB", 
            "XNLSPATH": "/usr/X11R6/lib/X11/nls", 
            "_": "/usr/bin/python"
        }, 
        "ansible_eth0": {
            "active": true, 
            "device": "eth0", 
            "features": {
                "busy_poll": "off [fixed]", 
                "fcoe_mtu": "off [fixed]", 
                "generic_receive_offload": "on", 
                "generic_segmentation_offload": "on", 
                "highdma": "off [fixed]", 
                "hw_tc_offload": "off [fixed]", 
                "l2_fwd_offload": "off [fixed]", 
                "large_receive_offload": "off [fixed]", 
                "loopback": "off [fixed]", 
                "netns_local": "off [fixed]", 
                "ntuple_filters": "off [fixed]", 
                "receive_hashing": "off [fixed]", 
                "rx_all": "off", 
                "rx_checksumming": "off", 
                "rx_fcs": "off", 
                "rx_vlan_filter": "on [fixed]", 
                "rx_vlan_offload": "on", 
                "rx_vlan_stag_filter": "off [fixed]", 
                "rx_vlan_stag_hw_parse": "off [fixed]", 
                "scatter_gather": "on", 
                "tcp_segmentation_offload": "on", 
                "tx_checksum_fcoe_crc": "off [fixed]", 
                "tx_checksum_ip_generic": "on", 
                "tx_checksum_ipv4": "off [fixed]", 
                "tx_checksum_ipv6": "off [fixed]", 
                "tx_checksum_sctp": "off [fixed]", 
                "tx_checksumming": "on", 
                "tx_fcoe_segmentation": "off [fixed]", 
                "tx_gre_segmentation": "off [fixed]", 
                "tx_gso_robust": "off [fixed]", 
                "tx_ipip_segmentation": "off [fixed]", 
                "tx_lockless": "off [fixed]", 
                "tx_nocache_copy": "off", 
                "tx_scatter_gather": "on", 
                "tx_scatter_gather_fraglist": "off [fixed]", 
                "tx_sit_segmentation": "off [fixed]", 
                "tx_tcp6_segmentation": "off [fixed]", 
                "tx_tcp_ecn_segmentation": "off [fixed]", 
                "tx_tcp_segmentation": "on", 
                "tx_udp_tnl_segmentation": "off [fixed]", 
                "tx_vlan_offload": "on [fixed]", 
                "tx_vlan_stag_hw_insert": "off [fixed]", 
                "udp_fragmentation_offload": "off [fixed]", 
                "vlan_challenged": "off [fixed]"
            }, 
            "ipv4": {
                "address": "10.0.2.15", 
                "broadcast": "10.0.2.255", 
                "netmask": "255.255.255.0", 
                "network": "10.0.2.0"
            }, 
            "ipv6": [
                {
                    "address": "fe80::a00:27ff:fec4:a465", 
                    "prefix": "64", 
                    "scope": "link"
                }
            ], 
            "macaddress": "08:00:27:c4:a4:65", 
            "module": "e1000", 
            "mtu": 1500, 
            "pciid": "0000:00:03.0", 
            "promisc": false, 
            "speed": 1000, 
            "type": "ether"
        }, 
        "ansible_eth1": {
            "active": true, 
            "device": "eth1", 
            "features": {
                "busy_poll": "off [fixed]", 
                "fcoe_mtu": "off [fixed]", 
                "generic_receive_offload": "on", 
                "generic_segmentation_offload": "on", 
                "highdma": "off [fixed]", 
                "hw_tc_offload": "off [fixed]", 
                "l2_fwd_offload": "off [fixed]", 
                "large_receive_offload": "off [fixed]", 
                "loopback": "off [fixed]", 
                "netns_local": "off [fixed]", 
                "ntuple_filters": "off [fixed]", 
                "receive_hashing": "off [fixed]", 
                "rx_all": "off", 
                "rx_checksumming": "off", 
                "rx_fcs": "off", 
                "rx_vlan_filter": "on [fixed]", 
                "rx_vlan_offload": "on", 
                "rx_vlan_stag_filter": "off [fixed]", 
                "rx_vlan_stag_hw_parse": "off [fixed]", 
                "scatter_gather": "on", 
                "tcp_segmentation_offload": "on", 
                "tx_checksum_fcoe_crc": "off [fixed]", 
                "tx_checksum_ip_generic": "on", 
                "tx_checksum_ipv4": "off [fixed]", 
                "tx_checksum_ipv6": "off [fixed]", 
                "tx_checksum_sctp": "off [fixed]", 
                "tx_checksumming": "on", 
                "tx_fcoe_segmentation": "off [fixed]", 
                "tx_gre_segmentation": "off [fixed]", 
                "tx_gso_robust": "off [fixed]", 
                "tx_ipip_segmentation": "off [fixed]", 
                "tx_lockless": "off [fixed]", 
                "tx_nocache_copy": "off", 
                "tx_scatter_gather": "on", 
                "tx_scatter_gather_fraglist": "off [fixed]", 
                "tx_sit_segmentation": "off [fixed]", 
                "tx_tcp6_segmentation": "off [fixed]", 
                "tx_tcp_ecn_segmentation": "off [fixed]", 
                "tx_tcp_segmentation": "on", 
                "tx_udp_tnl_segmentation": "off [fixed]", 
                "tx_vlan_offload": "on [fixed]", 
                "tx_vlan_stag_hw_insert": "off [fixed]", 
                "udp_fragmentation_offload": "off [fixed]", 
                "vlan_challenged": "off [fixed]"
            }, 
            "ipv4": {
                "address": "192.168.56.10", 
                "broadcast": "192.168.56.255", 
                "netmask": "255.255.255.0", 
                "network": "192.168.56.0"
            }, 
            "ipv6": [
                {
                    "address": "fe80::a00:27ff:fe6f:1f17", 
                    "prefix": "64", 
                    "scope": "link"
                }
            ], 
            "macaddress": "08:00:27:6f:1f:17", 
            "module": "e1000", 
            "mtu": 1500, 
            "pciid": "0000:00:08.0", 
            "promisc": false, 
            "speed": 1000, 
            "type": "ether"
        }, 
        "ansible_fips": false, 
        "ansible_form_factor": "Other", 
        "ansible_fqdn": "linux-6bd2", 
        "ansible_gather_subset": [
            "hardware", 
            "network", 
            "virtual"
        ], 
        "ansible_hostname": "linux-6bd2", 
        "ansible_interfaces": [
            "lo", 
            "eth1", 
            "eth0"
        ], 
        "ansible_kernel": "4.4.87-25-default", 
        "ansible_lo": {
            "active": true, 
            "device": "lo", 
            "features": {
                "busy_poll": "off [fixed]", 
                "fcoe_mtu": "off [fixed]", 
                "generic_receive_offload": "on", 
                "generic_segmentation_offload": "on", 
                "highdma": "on [fixed]", 
                "hw_tc_offload": "off [fixed]", 
                "l2_fwd_offload": "off [fixed]", 
                "large_receive_offload": "off [fixed]", 
                "loopback": "on [fixed]", 
                "netns_local": "on [fixed]", 
                "ntuple_filters": "off [fixed]", 
                "receive_hashing": "off [fixed]", 
                "rx_all": "off [fixed]", 
                "rx_checksumming": "on [fixed]", 
                "rx_fcs": "off [fixed]", 
                "rx_vlan_filter": "off [fixed]", 
                "rx_vlan_offload": "off [fixed]", 
                "rx_vlan_stag_filter": "off [fixed]", 
                "rx_vlan_stag_hw_parse": "off [fixed]", 
                "scatter_gather": "on", 
                "tcp_segmentation_offload": "on", 
                "tx_checksum_fcoe_crc": "off [fixed]", 
                "tx_checksum_ip_generic": "on [fixed]", 
                "tx_checksum_ipv4": "off [fixed]", 
                "tx_checksum_ipv6": "off [fixed]", 
                "tx_checksum_sctp": "on [fixed]", 
                "tx_checksumming": "on", 
                "tx_fcoe_segmentation": "off [fixed]", 
                "tx_gre_segmentation": "off [fixed]", 
                "tx_gso_robust": "off [fixed]", 
                "tx_ipip_segmentation": "off [fixed]", 
                "tx_lockless": "on [fixed]", 
                "tx_nocache_copy": "off [fixed]", 
                "tx_scatter_gather": "on [fixed]", 
                "tx_scatter_gather_fraglist": "on [fixed]", 
                "tx_sit_segmentation": "off [fixed]", 
                "tx_tcp6_segmentation": "on", 
                "tx_tcp_ecn_segmentation": "on", 
                "tx_tcp_segmentation": "on", 
                "tx_udp_tnl_segmentation": "off [fixed]", 
                "tx_vlan_offload": "off [fixed]", 
                "tx_vlan_stag_hw_insert": "off [fixed]", 
                "udp_fragmentation_offload": "on", 
                "vlan_challenged": "on [fixed]"
            }, 
            "ipv4": {
                "address": "127.0.0.1", 
                "broadcast": "host", 
                "netmask": "255.0.0.0", 
                "network": "127.0.0.0"
            }, 
            "ipv6": [
                {
                    "address": "::1", 
                    "prefix": "128", 
                    "scope": "host"
                }
            ], 
            "mtu": 65536, 
            "promisc": false, 
            "type": "loopback"
        }, 
        "ansible_lvm": {
            "lvs": {}, 
            "vgs": {}
        }, 
        "ansible_machine": "x86_64", 
        "ansible_machine_id": "0fee1e421b80b342cc82f06d59c7ab14", 
        "ansible_memfree_mb": 773, 
        "ansible_memory_mb": {
            "nocache": {
                "free": 914, 
                "used": 77
            }, 
            "real": {
                "free": 773, 
                "total": 991, 
                "used": 218
            }, 
            "swap": {
                "cached": 0, 
                "free": 1025, 
                "total": 1025, 
                "used": 0
            }
        }, 
        "ansible_memtotal_mb": 991, 
        "ansible_mounts": [
            {
                "device": "/dev/sda1", 
                "fstype": "ext4", 
                "mount": "/", 
                "options": "rw,relatime,data=ordered", 
                "size_available": 16863109120, 
                "size_total": 19943583744, 
                "uuid": "3090591d-90bd-4a5f-8cc5-61e8bdd6f40a"
            }
        ], 
        "ansible_nodename": "linux-6bd2", 
        "ansible_os_family": "Suse", 
        "ansible_pkg_mgr": "zypper", 
        "ansible_processor": [
            "GenuineIntel", 
            "Intel(R) Core(TM) i7-4600U CPU @ 2.10GHz"
        ], 
        "ansible_processor_cores": 1, 
        "ansible_processor_count": 1, 
        "ansible_processor_threads_per_core": 1, 
        "ansible_processor_vcpus": 1, 
        "ansible_product_name": "VirtualBox", 
        "ansible_product_serial": "0", 
        "ansible_product_uuid": "54B49D0C-258E-4CBF-A9BC-87106C4C8BCB", 
        "ansible_product_version": "1.2", 
        "ansible_python": {
            "executable": "/usr/bin/python", 
            "has_sslcontext": true, 
            "type": "CPython", 
            "version": {
                "major": 2, 
                "micro": 13, 
                "minor": 7, 
                "releaselevel": "final", 
                "serial": 0
            }, 
            "version_info": [
                2, 
                7, 
                13, 
                "final", 
                0
            ]
        }, 
        "ansible_python_version": "2.7.13", 
        "ansible_real_group_id": 0, 
        "ansible_real_user_id": 0, 
        "ansible_selinux": false, 
        "ansible_service_mgr": "systemd", 
        "ansible_ssh_host_key_dsa_public": "AAAAB3NzaC1kc3MAAACBAIqKhNa4TXZCUiFKibpu+JF5n+Vd3kal+CGHfGMh/uC+hXirh3vup/esX3x8vtVLwlqkhDggv7mvnSgxRipdMjiBz5WaHieA8Ckp6vrDcCuqrwXriqXS3SLUTokGTeK0tnL4G6cLFRDOzx2UkuzM7BmpXdD6Aa8VrrZ2IK2n9KRFAAAAFQCzw0vvWrAgNC+Uuqzbpo6yLuphKwAAAIArgJU/c+B3mJEmo37JB8ao2zp2OZ5BvFRnIgitqttzi/Mul6ve6L+d9Afbs2yNvU6+gBXjtg5o/yBekvfoIFaxzGhvLMyu5L6WMEcBO9jxilug/26HADkCtkY59D1pYivSczDRaBCHePaX/it2tuvW8h8V62xkcXBwI+gwLoWcFwAAAIEAiH/P2RKEmaLAP99XrFYkkokOSaBiPLmkwKD5ZW75nt9GtG+7/rZPNsF5KXy5Xvg5BNsUknYHpF+JSmihzrPPfGc+9KRczrf8WjVb87Z7XIB8NizEpBRt1CR5VqU4baLpnpntr1bQJdpaJcuTnwjorslVo44HbozbrtjzQ0wdOy8=", 
        "ansible_ssh_host_key_ecdsa_public": "AAAAE2VjZHNhLXNoYTItbmlzdHAyNTYAAAAIbmlzdHAyNTYAAABBBCmC+gSyawBw03nlHCwCa3mSvu2g6xq49frr/PDpHFohV/YegptvJhiku/ry++PAsk3cXvXwU21pD83sKIVH6kI=", 
        "ansible_ssh_host_key_ed25519_public": "AAAAC3NzaC1lZDI1NTE5AAAAIJlo1m0XjAWa5ioS3CXzM8MH9mraYOY6tUIMfLoSgkJ2", 
        "ansible_ssh_host_key_rsa_public": "AAAAB3NzaC1yc2EAAAADAQABAAABAQDam9fsDG8L+3Is7BoiaQE/MUpCPFXLmy/dqBfZ1SCMOJhSIkU+BldgpBLVIvNrL3BRmLQYbBzphVK9n8PprbvM9JYL2xTSi72+cqwghnfsqIhEqHtEJBXcj8YdSSqNFQQonpZdVV4Ee0ltZFc0GKaWcUcMy+4nXF0rAw6oeQjJ0EOFdsZm7JDZeB8VLAHo9zZrsOzs2pfwT0Qz8XDBHwvdV7nYWT8zV2cDUIJq9kqlEiFg3nl5moxbJa3JKmikQ3ZUWDBAi8OrQNTDDH1H9hXslupYAFggqRsqNMVaKBur+JJcQ7kMjy5+KwDB1biAzeLrVPkXGBmXLWLAQb1PG49J", 
        "ansible_swapfree_mb": 1025, 
        "ansible_swaptotal_mb": 1025, 
        "ansible_system": "Linux", 
        "ansible_system_vendor": "innotek GmbH", 
        "ansible_uptime_seconds": 2264, 
        "ansible_user_dir": "/root", 
        "ansible_user_gecos": "root", 
        "ansible_user_gid": 0, 
        "ansible_user_id": "root", 
        "ansible_user_shell": "/bin/bash", 
        "ansible_user_uid": 0, 
        "ansible_userspace_architecture": "x86_64", 
        "ansible_userspace_bits": "64", 
        "ansible_virtualization_role": "guest", 
        "ansible_virtualization_type": "virtualbox", 
        "module_setup": true
    }, 
    "changed": false
}
